dump.vcd
$date
	Fri Nov  8 22:21:24 2024
$end
$version
	Icarus Verilog
$end
$timescale
	1s
$end
$scope module xorgate_tb $end
$var wire 1 ! t_c $end
$var reg 1 " t_a $end
$var reg 1 # t_b $end
$upscope $end
$enddefinitions $end
$comment Show the parameter values. $end
$dumpall
$end
#0
$dumpvars
0#
0"
0!
$end
#1
1!
1"
#2
0!
1#
#3
0#
0"
#7
1!
1"
#9
0!
1#
#11
0#
0"
#13
0!
1#
1"
#14
1!
0#
#15
1#
0"
#16
1!
0#
1"
#17
1#
0"
#18
1!
0#
1"
#19
1#
0"
#20
1!
0#
1"
#21
1#
0"
