wave.vcd
$date
	Fri Nov  8 22:58:14 2024
$end
$version
	Icarus Verilog
$end
$timescale
	1s
$end
$scope module standing_wave_tb $end
$var wire 8 ! wave_out [7:0] $end
$var reg 1 " clk $end
$var reg 1 # rst $end
$scope module uut $end
$var wire 1 " clk $end
$var wire 1 # rst $end
$var parameter 32 $ FREQ_A $end
$var parameter 32 % FREQ_B $end
$var reg 8 & counter_a [7:0] $end
$var reg 8 ' counter_b [7:0] $end
$var reg 8 ( wave_a [7:0] $end
$var reg 8 ) wave_b [7:0] $end
$var reg 8 * wave_out [7:0] $end
$upscope $end
$upscope $end
$enddefinitions $end
$comment Show the parameter values. $end
$dumpall
b100 %
b100 $
$end
#0
$dumpvars
bx *
bx )
bx (
b0 '
b0 &
1#
0"
bx !
$end
#5
b110010 )
b110010 (
b0xxxxxxx !
b0xxxxxxx *
1"
#10
0"
#15
b110010 !
b110010 *
1"
#20
0"
0#
#25
b100 '
b100 &
1"
#30
0"
#35
b1100100 )
b1100100 (
b1000 '
b1000 &
1"
#40
0"
#45
b110010 )
b110010 (
b1100100 !
b1100100 *
b1100 '
b1100 &
1"
#50
0"
#55
b110010 !
b110010 *
b0 )
b0 (
b10000 '
b10000 &
1"
#60
0"
#65
b110010 )
b110010 (
b0 !
b0 *
b10100 '
b10100 &
1"
#70
0"
#75
b110010 !
b110010 *
b1100100 )
b1100100 (
b11000 '
b11000 &
1"
#80
0"
#85
b110010 )
b110010 (
b1100100 !
b1100100 *
b11100 '
b11100 &
1"
#90
0"
#95
b110010 !
b110010 *
b0 )
b0 (
b100000 '
b100000 &
1"
#100
0"
#105
b110010 )
b110010 (
b0 !
b0 *
b100100 '
b100100 &
1"
#110
0"
#115
b110010 !
b110010 *
b1100100 )
b1100100 (
b101000 '
b101000 &
1"
#120
0"
#125
b110010 )
b110010 (
b1100100 !
b1100100 *
b101100 '
b101100 &
1"
#130
0"
#135
b110010 !
b110010 *
b0 )
b0 (
b110000 '
b110000 &
1"
#140
0"
#145
b110010 )
b110010 (
b0 !
b0 *
b110100 '
b110100 &
1"
#150
0"
#155
b110010 !
b110010 *
b1100100 )
b1100100 (
b111000 '
b111000 &
1"
#160
0"
#165
b110010 )
b110010 (
b1100100 !
b1100100 *
b111100 '
b111100 &
1"
#170
0"
#175
b110010 !
b110010 *
b0 )
b0 (
b1000000 '
b1000000 &
1"
#180
0"
#185
b110010 )
b110010 (
b0 !
b0 *
b1000100 '
b1000100 &
1"
#190
0"
#195
b110010 !
b110010 *
b1100100 )
b1100100 (
b1001000 '
b1001000 &
1"
#200
0"
#205
b110010 )
b110010 (
b1100100 !
b1100100 *
b1001100 '
b1001100 &
1"
#210
0"
#215
b110010 !
b110010 *
b0 )
b0 (
b1010000 '
b1010000 &
1"
#220
0"
#225
b110010 )
b110010 (
b0 !
b0 *
b1010100 '
b1010100 &
1"
#230
0"
#235
b110010 !
b110010 *
b1100100 )
b1100100 (
b1011000 '
b1011000 &
1"
#240
0"
#245
b110010 )
b110010 (
b1100100 !
b1100100 *
b1011100 '
b1011100 &
1"
#250
0"
#255
b110010 !
b110010 *
b0 )
b0 (
b1100000 '
b1100000 &
1"
#260
0"
#265
b110010 )
b110010 (
b0 !
b0 *
b1100100 '
b1100100 &
1"
#270
0"
#275
b110010 !
b110010 *
b1100100 )
b1100100 (
b1101000 '
b1101000 &
1"
#280
0"
#285
b110010 )
b110010 (
b1100100 !
b1100100 *
b1101100 '
b1101100 &
1"
#290
0"
#295
b110010 !
b110010 *
b0 )
b0 (
b1110000 '
b1110000 &
1"
#300
0"
#305
b110010 )
b110010 (
b0 !
b0 *
b1110100 '
b1110100 &
1"
#310
0"
#315
b110010 !
b110010 *
b1100100 )
b1100100 (
b1111000 '
b1111000 &
1"
#320
0"
#325
b110010 )
b110010 (
b1100100 !
b1100100 *
b1111100 '
b1111100 &
1"
#330
0"
#335
b110010 !
b110010 *
b0 )
b0 (
b10000000 '
b10000000 &
1"
#340
0"
#345
b110010 )
b110010 (
b0 !
b0 *
b10000100 '
b10000100 &
1"
#350
0"
#355
b110010 !
b110010 *
b1100100 )
b1100100 (
b10001000 '
b10001000 &
1"
#360
0"
#365
b110010 )
b110010 (
b1100100 !
b1100100 *
b10001100 '
b10001100 &
1"
#370
0"
#375
b110010 !
b110010 *
b0 )
b0 (
b10010000 '
b10010000 &
1"
#380
0"
#385
b110010 )
b110010 (
b0 !
b0 *
b10010100 '
b10010100 &
1"
#390
0"
#395
b110010 !
b110010 *
b1100100 )
b1100100 (
b10011000 '
b10011000 &
1"
#400
0"
#405
b110010 )
b110010 (
b1100100 !
b1100100 *
b10011100 '
b10011100 &
1"
#410
0"
#415
b110010 !
b110010 *
b0 )
b0 (
b10100000 '
b10100000 &
1"
#420
0"
#425
b110010 )
b110010 (
b0 !
b0 *
b10100100 '
b10100100 &
1"
#430
0"
#435
b110010 !
b110010 *
b1100100 )
b1100100 (
b10101000 '
b10101000 &
1"
#440
0"
#445
b110010 )
b110010 (
b1100100 !
b1100100 *
b10101100 '
b10101100 &
1"
#450
0"
#455
b110010 !
b110010 *
b0 )
b0 (
b10110000 '
b10110000 &
1"
#460
0"
#465
b110010 )
b110010 (
b0 !
b0 *
b10110100 '
b10110100 &
1"
#470
0"
#475
b110010 !
b110010 *
b1100100 )
b1100100 (
b10111000 '
b10111000 &
1"
#480
0"
#485
b110010 )
b110010 (
b1100100 !
b1100100 *
b10111100 '
b10111100 &
1"
#490
0"
#495
b110010 !
b110010 *
b0 )
b0 (
b11000000 '
b11000000 &
1"
#500
0"
#505
b110010 )
b110010 (
b0 !
b0 *
b11000100 '
b11000100 &
1"
#510
0"
#515
b110010 !
b110010 *
b1100100 )
b1100100 (
b11001000 '
b11001000 &
1"
#520
0"
#525
b110010 )
b110010 (
b1100100 !
b1100100 *
b11001100 '
b11001100 &
1"
#530
0"
#535
b110010 !
b110010 *
b0 )
b0 (
b11010000 '
b11010000 &
1"
#540
0"
#545
b110010 )
b110010 (
b0 !
b0 *
b11010100 '
b11010100 &
1"
#550
0"
#555
b110010 !
b110010 *
b1100100 )
b1100100 (
b11011000 '
b11011000 &
1"
#560
0"
#565
b110010 )
b110010 (
b1100100 !
b1100100 *
b11011100 '
b11011100 &
1"
#570
0"
#575
b110010 !
b110010 *
b0 )
b0 (
b11100000 '
b11100000 &
1"
#580
0"
#585
b110010 )
b110010 (
b0 !
b0 *
b11100100 '
b11100100 &
1"
#590
0"
#595
b110010 !
b110010 *
b1100100 )
b1100100 (
b11101000 '
b11101000 &
1"
#600
0"
#605
b110010 )
b110010 (
b1100100 !
b1100100 *
b11101100 '
b11101100 &
1"
#610
0"
#615
b110010 !
b110010 *
b0 )
b0 (
b11110000 '
b11110000 &
1"
#620
0"
#625
b110010 )
b110010 (
b0 !
b0 *
b11110100 '
b11110100 &
1"
#630
0"
#635
b110010 !
b110010 *
b1100100 )
b1100100 (
b11111000 '
b11111000 &
1"
#640
0"
#645
b110010 )
b110010 (
b1100100 !
b1100100 *
b11111100 '
b11111100 &
1"
#650
0"
#655
b110010 !
b110010 *
b0 )
b0 (
b0 '
b0 &
1"
#660
0"
#665
b110010 )
b110010 (
b0 !
b0 *
b100 '
b100 &
1"
#670
0"
#675
b110010 !
b110010 *
b1100100 )
b1100100 (
b1000 '
b1000 &
1"
#680
0"
#685
b110010 )
b110010 (
b1100100 !
b1100100 *
b1100 '
b1100 &
1"
#690
0"
#695
b110010 !
b110010 *
b0 )
b0 (
b10000 '
b10000 &
1"
#700
0"
#705
b110010 )
b110010 (
b0 !
b0 *
b10100 '
b10100 &
1"
#710
0"
#715
b110010 !
b110010 *
b1100100 )
b1100100 (
b11000 '
b11000 &
1"
#720
0"
#725
b110010 )
b110010 (
b1100100 !
b1100100 *
b11100 '
b11100 &
1"
#730
0"
#735
b110010 !
b110010 *
b0 )
b0 (
b100000 '
b100000 &
1"
#740
0"
#745
b110010 )
b110010 (
b0 !
b0 *
b100100 '
b100100 &
1"
#750
0"
#755
b110010 !
b110010 *
b1100100 )
b1100100 (
b101000 '
b101000 &
1"
#760
0"
#765
b110010 )
b110010 (
b1100100 !
b1100100 *
b101100 '
b101100 &
1"
#770
0"
#775
b110010 !
b110010 *
b0 )
b0 (
b110000 '
b110000 &
1"
#780
0"
#785
b110010 )
b110010 (
b0 !
b0 *
b110100 '
b110100 &
1"
#790
0"
#795
b110010 !
b110010 *
b1100100 )
b1100100 (
b111000 '
b111000 &
1"
#800
0"
#805
b110010 )
b110010 (
b1100100 !
b1100100 *
b111100 '
b111100 &
1"
#810
0"
#815
b110010 !
b110010 *
b0 )
b0 (
b1000000 '
b1000000 &
1"
#820
0"
#825
b110010 )
b110010 (
b0 !
b0 *
b1000100 '
b1000100 &
1"
#830
0"
#835
b110010 !
b110010 *
b1100100 )
b1100100 (
b1001000 '
b1001000 &
1"
#840
0"
#845
b110010 )
b110010 (
b1100100 !
b1100100 *
b1001100 '
b1001100 &
1"
#850
0"
#855
b110010 !
b110010 *
b0 )
b0 (
b1010000 '
b1010000 &
1"
#860
0"
#865
b110010 )
b110010 (
b0 !
b0 *
b1010100 '
b1010100 &
1"
#870
0"
#875
b110010 !
b110010 *
b1100100 )
b1100100 (
b1011000 '
b1011000 &
1"
#880
0"
#885
b110010 )
b110010 (
b1100100 !
b1100100 *
b1011100 '
b1011100 &
1"
#890
0"
#895
b110010 !
b110010 *
b0 )
b0 (
b1100000 '
b1100000 &
1"
#900
0"
#905
b110010 )
b110010 (
b0 !
b0 *
b1100100 '
b1100100 &
1"
#910
0"
#915
b110010 !
b110010 *
b1100100 )
b1100100 (
b1101000 '
b1101000 &
1"
#920
0"
#925
b110010 )
b110010 (
b1100100 !
b1100100 *
b1101100 '
b1101100 &
1"
#930
0"
#935
b110010 !
b110010 *
b0 )
b0 (
b1110000 '
b1110000 &
1"
#940
0"
#945
b110010 )
b110010 (
b0 !
b0 *
b1110100 '
b1110100 &
1"
#950
0"
#955
b110010 !
b110010 *
b1100100 )
b1100100 (
b1111000 '
b1111000 &
1"
#960
0"
#965
b110010 )
b110010 (
b1100100 !
b1100100 *
b1111100 '
b1111100 &
1"
#970
0"
#975
b110010 !
b110010 *
b0 )
b0 (
b10000000 '
b10000000 &
1"
#980
0"
#985
b110010 )
b110010 (
b0 !
b0 *
b10000100 '
b10000100 &
1"
#990
0"
#995
b110010 !
b110010 *
b1100100 )
b1100100 (
b10001000 '
b10001000 &
1"
#1000
0"
#1005
b110010 )
b110010 (
b1100100 !
b1100100 *
b10001100 '
b10001100 &
1"
#1010
0"
#1015
b110010 !
b110010 *
b0 )
b0 (
b10010000 '
b10010000 &
1"
